Learn with Yiting - ISSS624 - Hands-on Exercise 1: Geospatial Data Wrangling with R
…
ℹ Use `spec()` to retrieve the full column specification for this data.
ℹ Specify the column types or set `show_col_types = FALSE` to quiet this message.

Using read_csv() from the readr package within tidyverse, we see that the dataframe with 4161 rows and 18 columns is imported to R.

Step 2

To look at it in a bit more detail:

list(listings)

[[1]]
# A tibble: 4,161 × 18
       id name     host_id host_…¹ neigh…² neigh…³ latit…⁴ longi…⁵ room_…⁶ price
    <dbl> <chr>      <dbl> <chr>   <chr>   <chr>     <dbl>   <dbl> <chr>   <dbl>
 1  50646 Pleasan…  227796 Sujatha Centra… Bukit …    1.33    104. Privat…    80
 2  71609 Ensuite…  367042 Belinda East R… Tampin…    1.35    104. Privat…   145
 3  71896 B&B  Ro…  367042 Belinda East R… Tampin…    1.35    104. Privat…    85
 4  71903 Room 2-…  367042 Belinda East R… Tampin…    1.35    104. Privat…    85
 5 275344 15 mins… 1439258 Kay     Centra… Bukit …    1.29    104. Privat…    49
 6 289234 Booking…  367042 Belinda East R… Tampin…    1.34    104. Privat…   184
 7 294281 5 mins … 1521514 Elizab… Centra… Newton     1.31    104. Privat…    79
 8 324945 Cozy Bl… 1439258 Kay     Centra… Bukit …    1.29    104. Privat…    49
 9 330089 Cozy Bl… 1439258 Kay     Centra… Bukit …    1.29    104. Privat…    55
10 330095 10 mins… 1439258 Kay     Centra… Bukit …    1.29    104. Privat…    55
# … with 4,151 more rows, 8 more variables: minimum_nights <dbl>,
#   number_of_reviews <dbl>, last_review <date>, reviews_per_month <dbl>,
#   calculated_host_listings_count <dbl>, availability_365 <dbl>,
#   number_of_reviews_ltm <dbl>, license <chr>, and abbreviated variable names
#   ¹​host_name, ²​neighbourhood_group, ³​neighbourhood, ⁴​latitude, ⁵​longitude,
#   ⁶​room_type
…
popdata <- read_csv("data/aspatial/respopagesextod2011to2020.csv")

Rows: 984656 Columns: 7
── Column specification ────────────────────────────────────────────────────────
Delimiter: ","
chr (5): PA, SZ, AG, Sex, TOD
dbl (2): Pop, Time

ℹ Use `spec()` to retrieve the full column specification for this data.
ℹ Specify the column types or set `show_col_types = FALSE` to quiet this message.

popdata

# A tibble: 984,656 × 7
   PA         SZ                     AG     Sex     TOD                Pop  Time
   <chr>      <chr>                  <chr>  <chr>   <chr>            <dbl> <dbl>
 1 Ang Mo Kio Ang Mo Kio Town Centre 0_to_4 Males   HDB 1- and 2-Ro…     0  2011
 2 Ang Mo Kio Ang Mo Kio Town Centre 0_to_4 Males   HDB 3-Room Flats    10  2011
 3 Ang Mo Kio Ang Mo Kio Town Centre 0_to_4 Males   HDB 4-Room Flats    30  2011
 4 Ang Mo Kio Ang Mo Kio Town Centre 0_to_4 Males   HDB 5-Room and …    50  2011
 5 Ang Mo Kio Ang Mo Kio Town Centre 0_to_4 Males   HUDC Flats (exc…     0  2011
 6 Ang Mo Kio Ang Mo Kio Town Centre 0_to_4 Males   Landed Properti…     0  2011
 7 Ang Mo Kio Ang Mo Kio Town Centre 0_to_4 Males   Condominiums an…    40  2011
 8 Ang Mo Kio Ang Mo Kio Town Centre 0_to_4 Males   Others               0  2011
 9 Ang Mo Kio Ang Mo Kio Town Centre 0_to_4 Females HDB 1- and 2-Ro…     0  2011
10 Ang Mo Kio Ang Mo Kio Town Centre 0_to_4 Females HDB 3-Room Flats    10  2011
# … with 984,646 more rows
…
